Weighting Group , LongHaul  , LongHaul EMS , Regional Delivery , Regional Delivery EMS , Urban Delivery , Municipal Utility , Construction , Heavy Urban , Urban       , Suburban    , Interurban  , Coach
1s              , 0/0       , 0/0          , 0.1/0.3           , 0/0                   , 0.18/0.42      , 0/0               , 0/0          , 0/0         , 0/0         , 0/0         , 0/0         , 0/0
1               , 0/0       , 0/0          , 0.1/0.3           , 0/0                   , 0.18/0.42      , 0/0               , 0/0          , 0/0         , 0/0         , 0/0         , 0/0         , 0/0
2               , 0/0       , 0/0          , 0.125/0.375       , 0/0                   , 0.15/0.35      , 0/0               , 0/0          , 0/0         , 0/0         , 0/0         , 0/0         , 0/0
3               , 0/0       , 0/0          , 0.125/0.375       , 0/0                   , 0.15/0.35      , 0/0               , 0/0          , 0/0         , 0/0         , 0/0         , 0/0         , 0/0
4-UD            , 0/0       , 0/0          , 0/0               , 0/0                   , 0.5/0.5        , 0.25/0.25         , 0.25/0.25    , 0/0         , 0/0         , 0/0         , 0/0         , 0/0
4-RD            , 0.05/0.05 , 0/0          , 0.45/0.45         , 0/0                   , 0/0            , 0.25/0.25         , 0.25/0.25    , 0/0         , 0/0         , 0/0         , 0/0         , 0/0
4-LH            , 0.45/0.45 , 0/0          , 0.05/0.05         , 0/0                   , 0/0            , 0.25/0.25         , 0.25/0.25    , 0/0         , 0/0         , 0/0         , 0/0         , 0/0
5-RD            , 0.03/0.07 , 0/0          , 0.27/0.63         , 0/0                   , 0/0            , 0/0               , 0.5/0.5      , 0/0         , 0/0         , 0/0         , 0/0         , 0/0
5-LH            , 0.27/0.63 , 0/0          , 0.03/0.07         , 0/0                   , 0/0            , 0/0               , 0.5/0.5      , 0/0         , 0/0         , 0/0         , 0/0         , 0/0
9-RD            , 0.03/0.07 , 0/0          , 0.27/0.63         , 0/0                   , 0/0            , 0.25/0.25         , 0.25/0.25    , 0/0         , 0/0         , 0/0         , 0/0         , 0/0
9-LH            , 0.27/0.63 , 0/0          , 0.03/0.07         , 0/0                   , 0/0            , 0.25/0.25         , 0.25/0.25    , 0/0         , 0/0         , 0/0         , 0/0         , 0/0
10-RD           , 0.03/0.07 , 0/0          , 0.27/0.63         , 0/0                   , 0/0            , 0/0               , 0.5/0.5      , 0/0         , 0/0         , 0/0         , 0/0         , 0/0
10-LH           , 0.27/0.63 , 0/0          , 0.03/0.07         , 0/0                   , 0/0            , 0/0               , 0.5/0.5      , 0/0         , 0/0         , 0/0         , 0/0         , 0/0
11              , 0/0       , 0/0          , 0.3/0.7           , 0/0                   , 0/0            , 0.1/0.23          , 0.3/0.37     , 0/0         , 0/0         , 0/0         , 0/0         , 0/0
12              , 0/0       , 0/0          , 0.3/0.7           , 0/0                   , 0/0            , 0/0               , 0.3/0.7      , 0/0         , 0/0         , 0/0         , 0/0         , 0/0
16              , 0/0       , 0/0          , 0/0               , 0/0                   , 0/0            , 0/0               , 0.30/0.70    , 0/0         , 0/0         , 0/0         , 0/0         , 0/0
# medium lorries
51              , 0/0       , 0/0          , 0.25/0.25         , 0/0                   , 0.25/0.25      , 0/0               , 0/0          , 0/0         , 0/0         , 0/0         , 0/0         , 0/0
52              , 0/0       , 0/0          , 0.25/0.25         , 0/0                   , 0.25/0.25      , 0/0               , 0/0          , 0/0         , 0/0         , 0/0         , 0/0         , 0/0
53              , 0/0       , 0/0          , 0.25/0.25         , 0/0                   , 0.25/0.25      , 0/0               , 0/0          , 0/0         , 0/0         , 0/0         , 0/0         , 0/0
54              , 0/0       , 0/0          , 0.25/0.25         , 0/0                   , 0.25/0.25      , 0/0               , 0/0          , 0/0         , 0/0         , 0/0         , 0/0         , 0/0
55              , 0/0       , 0/0          , 0.25/0.25         , 0/0                   , 0.25/0.25      , 0/0               , 0/0          , 0/0         , 0/0         , 0/0         , 0/0         , 0/0
56              , 0/0       , 0/0          , 0.25/0.25         , 0/0                   , 0.25/0.25      , 0/0               , 0/0          , 0/0         , 0/0         , 0/0         , 0/0         , 0/0
# completed buses
31a             , 0/0       , 0/0          , 0/0               , 0/0                   , 0/0            , 0/0               , 0/0          , 0.27/0.23   , 0.15/0.13   , 0.11/0.11   , 0/0         , 0/0
31b1            , 0/0       , 0/0          , 0/0               , 0/0                   , 0/0            , 0/0               , 0/0          , 0.05/0.05   , 0.16/0.14   , 0.32/0.28   , 0/0         , 0/0
31b2            , 0/0       , 0/0          , 0/0               , 0/0                   , 0/0            , 0/0               , 0/0          , 0.05/0.05   , 0.09/0.08   , 0.15/0.13   , 0.24/0.21   , 0/0
31c             , 0/0       , 0/0          , 0/0               , 0/0                   , 0/0            , 0/0               , 0/0          , 0.20/0.31   , 0.12/0.18   , 0.07/0.12   , 0/0         , 0/0
31d             , 0/0       , 0/0          , 0/0               , 0/0                   , 0/0            , 0/0               , 0/0          , 0.27/0.23   , 0.15/0.13   , 0.11/0.11   , 0/0         , 0/0
31e             , 0/0       , 0/0          , 0/0               , 0/0                   , 0/0            , 0/0               , 0/0          , 0.20/0.31   , 0.12/0.18   , 0.07/0.12   , 0/0         , 0/0
32a             , 0/0       , 0/0          , 0/0               , 0/0                   , 0/0            , 0/0               , 0/0          , 0/0         , 0/0         , 0/0         , 0.47/0.43   , 0.04/0.06
32b             , 0/0       , 0/0          , 0/0               , 0/0                   , 0/0            , 0/0               , 0/0          , 0/0         , 0/0         , 0/0         , 0.47/0.43   , 0.04/0.06
32c             , 0/0       , 0/0          , 0/0               , 0/0                   , 0/0            , 0/0               , 0/0          , 0/0         , 0/0         , 0/0         , 0.05/0.05   , 0.30/0.60
32d             , 0/0       , 0/0          , 0/0               , 0/0                   , 0/0            , 0/0               , 0/0          , 0/0         , 0/0         , 0/0         , 0.05/0.05   , 0.30/0.60
32e             , 0/0       , 0/0          , 0/0               , 0/0                   , 0/0            , 0/0               , 0/0          , 0/0         , 0/0         , 0/0         , 0.05/0.05   , 0.35/0.55
32f             , 0/0       , 0/0          , 0/0               , 0/0                   , 0/0            , 0/0               , 0/0          , 0/0         , 0/0         , 0/0         , 0.05/0.05   , 0.35/0.55
33a             , 0/0       , 0/0          , 0/0               , 0/0                   , 0/0            , 0/0               , 0/0          , 0.27/0.23   , 0.15/0.13   , 0.11/0.11   , 0/0         , 0/0
33b1            , 0/0       , 0/0          , 0/0               , 0/0                   , 0/0            , 0/0               , 0/0          , 0.05/0.05   , 0.16/0.14   , 0.32/0.28   , 0/0         , 0/0
33b2            , 0/0       , 0/0          , 0/0               , 0/0                   , 0/0            , 0/0               , 0/0          , 0.05/0.05   , 0.09/0.08   , 0.15/0.13   , 0.24/0.21   , 0/0
33c             , 0/0       , 0/0          , 0/0               , 0/0                   , 0/0            , 0/0               , 0/0          , 0.20/0.31   , 0.12/0.18   , 0.07/0.12   , 0/0         , 0/0
33d             , 0/0       , 0/0          , 0/0               , 0/0                   , 0/0            , 0/0               , 0/0          , 0.27/0.23   , 0.15/0.13   , 0.11/0.11   , 0/0         , 0/0
33e             , 0/0       , 0/0          , 0/0               , 0/0                   , 0/0            , 0/0               , 0/0          , 0.20/0.31   , 0.12/0.18   , 0.07/0.12   , 0/0         , 0/0
34a             , 0/0       , 0/0          , 0/0               , 0/0                   , 0/0            , 0/0               , 0/0          , 0/0         , 0/0         , 0/0         , 0.47/0.43   , 0.04/0.06
34b             , 0/0       , 0/0          , 0/0               , 0/0                   , 0/0            , 0/0               , 0/0          , 0/0         , 0/0         , 0/0         , 0.47/0.43   , 0.04/0.06
34c             , 0/0       , 0/0          , 0/0               , 0/0                   , 0/0            , 0/0               , 0/0          , 0/0         , 0/0         , 0/0         , 0.05/0.05   , 0.30/0.60
34d             , 0/0       , 0/0          , 0/0               , 0/0                   , 0/0            , 0/0               , 0/0          , 0/0         , 0/0         , 0/0         , 0.05/0.05   , 0.30/0.60
34e             , 0/0       , 0/0          , 0/0               , 0/0                   , 0/0            , 0/0               , 0/0          , 0/0         , 0/0         , 0/0         , 0.05/0.05   , 0.35/0.55
34f             , 0/0       , 0/0          , 0/0               , 0/0                   , 0/0            , 0/0               , 0/0          , 0/0         , 0/0         , 0/0         , 0.05/0.05   , 0.35/0.55
35a             , 0/0       , 0/0          , 0/0               , 0/0                   , 0/0            , 0/0               , 0/0          , 0.27/0.23   , 0.15/0.13   , 0.11/0.11   , 0/0         , 0/0
35b1            , 0/0       , 0/0          , 0/0               , 0/0                   , 0/0            , 0/0               , 0/0          , 0.27/0.23   , 0.15/0.13   , 0.11/0.11   , 0/0         , 0/0
35b2            , 0/0       , 0/0          , 0/0               , 0/0                   , 0/0            , 0/0               , 0/0          , 0.27/0.23   , 0.15/0.13   , 0.11/0.11   , 0.00/0.00   , 0/0
35c             , 0/0       , 0/0          , 0/0               , 0/0                   , 0/0            , 0/0               , 0/0          , 0.27/0.23   , 0.15/0.13   , 0.11/0.11   , 0/0         , 0/0
36a             , 0/0       , 0/0          , 0/0               , 0/0                   , 0/0            , 0/0               , 0/0          , 0/0         , 0/0         , 0/0         , 0.47/0.43   , 0.04/0.06
36b             , 0/0       , 0/0          , 0/0               , 0/0                   , 0/0            , 0/0               , 0/0          , 0/0         , 0/0         , 0/0         , 0.47/0.43   , 0.04/0.06
36c             , 0/0       , 0/0          , 0/0               , 0/0                   , 0/0            , 0/0               , 0/0          , 0/0         , 0/0         , 0/0         , 0.05/0.05   , 0.30/0.60
36d             , 0/0       , 0/0          , 0/0               , 0/0                   , 0/0            , 0/0               , 0/0          , 0/0         , 0/0         , 0/0         , 0.05/0.05   , 0.30/0.60
36e             , 0/0       , 0/0          , 0/0               , 0/0                   , 0/0            , 0/0               , 0/0          , 0/0         , 0/0         , 0/0         , 0.05/0.05   , 0.35/0.55
36f             , 0/0       , 0/0          , 0/0               , 0/0                   , 0/0            , 0/0               , 0/0          , 0/0         , 0/0         , 0/0         , 0.05/0.05   , 0.35/0.55
37a             , 0/0       , 0/0          , 0/0               , 0/0                   , 0/0            , 0/0               , 0/0          , 0.27/0.23   , 0.15/0.13   , 0.11/0.11   , 0/0         , 0/0
37b1            , 0/0       , 0/0          , 0/0               , 0/0                   , 0/0            , 0/0               , 0/0          , 0.05/0.05   , 0.16/0.14   , 0.32/0.28   , 0/0         , 0/0
37b2            , 0/0       , 0/0          , 0/0               , 0/0                   , 0/0            , 0/0               , 0/0          , 0.05/0.05   , 0.09/0.08   , 0.15/0.13   , 0.24/0.21   , 0/0
37c             , 0/0       , 0/0          , 0/0               , 0/0                   , 0/0            , 0/0               , 0/0          , 0.20/0.31   , 0.12/0.18   , 0.07/0.12   , 0/0         , 0/0
37d             , 0/0       , 0/0          , 0/0               , 0/0                   , 0/0            , 0/0               , 0/0          , 0.27/0.23   , 0.15/0.13   , 0.11/0.11   , 0/0         , 0/0
37e             , 0/0       , 0/0          , 0/0               , 0/0                   , 0/0            , 0/0               , 0/0          , 0.20/0.31   , 0.12/0.18   , 0.07/0.12   , 0/0         , 0/0
38a             , 0/0       , 0/0          , 0/0               , 0/0                   , 0/0            , 0/0               , 0/0          , 0/0         , 0/0         , 0/0         , 0.47/0.43   , 0.04/0.06
38b             , 0/0       , 0/0          , 0/0               , 0/0                   , 0/0            , 0/0               , 0/0          , 0/0         , 0/0         , 0/0         , 0.47/0.43   , 0.04/0.06
38c             , 0/0       , 0/0          , 0/0               , 0/0                   , 0/0            , 0/0               , 0/0          , 0/0         , 0/0         , 0/0         , 0.05/0.05   , 0.30/0.60
38d             , 0/0       , 0/0          , 0/0               , 0/0                   , 0/0            , 0/0               , 0/0          , 0/0         , 0/0         , 0/0         , 0.05/0.05   , 0.30/0.60
38e             , 0/0       , 0/0          , 0/0               , 0/0                   , 0/0            , 0/0               , 0/0          , 0/0         , 0/0         , 0/0         , 0.05/0.05   , 0.35/0.55
38f             , 0/0       , 0/0          , 0/0               , 0/0                   , 0/0            , 0/0               , 0/0          , 0/0         , 0/0         , 0/0         , 0.05/0.05   , 0.35/0.55
39a             , 0/0       , 0/0          , 0/0               , 0/0                   , 0/0            , 0/0               , 0/0          , 0.27/0.23   , 0.15/0.13   , 0.11/0.11   , 0/0         , 0/0
39b1            , 0/0       , 0/0          , 0/0               , 0/0                   , 0/0            , 0/0               , 0/0          , 0.27/0.23   , 0.15/0.13   , 0.11/0.11   , 0/0         , 0/0
39b2            , 0/0       , 0/0          , 0/0               , 0/0                   , 0/0            , 0/0               , 0/0          , 0.27/0.23   , 0.15/0.13   , 0.11/0.11   , 0.00/0.00   , 0/0
39c             , 0/0       , 0/0          , 0/0               , 0/0                   , 0/0            , 0/0               , 0/0          , 0.27/0.23   , 0.15/0.13   , 0.11/0.11   , 0/0         , 0/0
40a             , 0/0       , 0/0          , 0/0               , 0/0                   , 0/0            , 0/0               , 0/0          , 0/0         , 0/0         , 0/0         , 0.47/0.43   , 0.04/0.06
40b             , 0/0       , 0/0          , 0/0               , 0/0                   , 0/0            , 0/0               , 0/0          , 0/0         , 0/0         , 0/0         , 0.47/0.43   , 0.04/0.06
40c             , 0/0       , 0/0          , 0/0               , 0/0                   , 0/0            , 0/0               , 0/0          , 0/0         , 0/0         , 0/0         , 0.05/0.05   , 0.30/0.60
40d             , 0/0       , 0/0          , 0/0               , 0/0                   , 0/0            , 0/0               , 0/0          , 0/0         , 0/0         , 0/0         , 0.05/0.05   , 0.30/0.60
40e             , 0/0       , 0/0          , 0/0               , 0/0                   , 0/0            , 0/0               , 0/0          , 0/0         , 0/0         , 0/0         , 0.05/0.05   , 0.35/0.55
40f             , 0/0       , 0/0          , 0/0               , 0/0                   , 0/0            , 0/0               , 0/0          , 0/0         , 0/0         , 0/0         , 0.05/0.05   , 0.35/0.55
